…
highest_population_states <-
  us_populations |>
  slice_max(population, n = 3) |>
  pull(state)

us_states_MNAR <-
  us_populations |>
  mutate(population =
           if_else(state %in% highest_population_states,
                   NA_real_,
                   population))

us_states_MNAR

# A tibble: 50 × 3
   state       population income
   <chr>            <dbl>  <dbl>
 1 Alabama           3615   3624
 2 Alaska             365   6315
 3 Arizona           2212   4530
 4 Arkansas          2110   3378
 5 California          NA   5114
 6 Colorado          2541   4884
 7 Connecticut       3100   5348
 8 Delaware           579   4809
 9 Florida           8277   4815
10 Georgia           4931   4091
# ℹ 40 more rows
…
